com\real\estate\RealestateApplication.class
com\real\estate\entity\repository\HousesRepository.class
com\real\estate\controller\HousesController.class
com\real\estate\service\HousesService.class
com\real\estate\entity\Houses.class
